📝 PROMPT 11: IMPLEMENTAR PAGINAÇÃO NA ROTA DE PACIENTES
OBJETIVO: Adicionar paginação na rota GET /api/patients para melhorar performance quando há muitos pacientes cadastrados, evitando carregar milhares de registros de uma vez.

CONTEXTO: Atualmente a rota retorna TODOS os pacientes de uma vez, o que pode ser lento e consumir muita memória quando há centenas ou milhares de registros. Vamos implementar paginação padrão.

ARQUIVOS A MODIFICAR:
1. server/routes.ts
2. server/storage.ts (interface já existe, apenas usar)
3. server/repositories/postgres-storage.ts (implementar getPatientsPaginated)

PASSO 1: MODIFICAR ROTA DE PACIENTES

No arquivo server/routes.ts, localize a rota GET /api/patients e substitua por:
```typescript
app.get("/api/patients", 
  authMiddleware,
  requireRole('admin', 'enfermagem'),
  asyncHandler(async (req, res) => {
    // Parâmetros de paginação (query params)
    const page = parseInt(req.query.page as string) || 1;
    const limit = parseInt(req.query.limit as string) || 50;
    const usePagination = req.query.paginate !== 'false'; // Default: true

    // Se não quiser paginação, retornar todos (retrocompatibilidade)
    if (!usePagination) {
      const patients = await storage.getAllPatients();
      const acceptToon = isToonFormat(req.get("accept"));
      if (acceptToon) {
        const toonData = stringifyToToon(patients);
        res.type("application/toon").send(toonData);
      } else {
        res.json(patients);
      }
      return;
    }

    // Com paginação
    const result = await storage.getPatientsPaginated({ page, limit });
    
    // Adiciona headers de paginação para cliente
    res.setHeader('X-Total-Count', result.total.toString());
    res.setHeader('X-Total-Pages', result.totalPages.toString());
    res.setHeader('X-Current-Page', result.page.toString());
    res.setHeader('X-Per-Page', result.limit.toString());

    const acceptToon = isToonFormat(req.get("accept"));
    if (acceptToon) {
      const toonData = stringifyToToon({
        data: result.data,
        pagination: {
          page: result.page,
          limit: result.limit,
          total: result.total,
          totalPages: result.totalPages
        }
      });
      res.type("application/toon").send(toonData);
    } else {
      res.json({
        data: result.data,
        pagination: {
          page: result.page,
          limit: result.limit,
          total: result.total,
          totalPages: result.totalPages,
          hasNext: result.page < result.totalPages,
          hasPrev: result.page > 1
        }
      });
    }
  })
);
```

PASSO 2: IMPLEMENTAR getPatientsPaginated NO STORAGE

No arquivo server/repositories/postgres-storage.ts, adicione o método:
```typescript
async getPatientsPaginated(params: PaginationParams): Promise<PaginatedResult<Patient>> {
  const page = Math.max(1, params.page || 1);
  const limit = Math.min(100, Math.max(1, params.limit || 50)); // Max 100 por página
  const offset = (page - 1) * limit;

  try {
    // Busca total de registros (com cache para 1 minuto)
    const totalResult = await this.db
      .select({ count: sql<number>`count(*)::int` })
      .from(patients);
    const total = totalResult[0]?.count || 0;

    // Busca página específica
    const data = await this.db
      .select()
      .from(patients)
      .orderBy(desc(patients.importedAt), desc(patients.dataInternacao))
      .limit(limit)
      .offset(offset);

    const totalPages = Math.ceil(total / limit);

    return {
      data,
      total,
      page,
      limit,
      totalPages
    };
  } catch (error) {
    logger.error('[Storage] Error in getPatientsPaginated:', error);
    throw error;
  }
}
```

Certifique-se de importar `desc` no topo do arquivo:
```typescript
import { desc, eq, sql } from "drizzle-orm";
```

PASSO 3: ATUALIZAR MEMORY STORAGE (FALLBACK)

No arquivo server/repositories/memory-storage.ts, adicione:
```typescript
async getPatientsPaginated(params: PaginationParams): Promise<PaginatedResult<Patient>> {
  const page = Math.max(1, params.page || 1);
  const limit = Math.min(100, Math.max(1, params.limit || 50));
  const offset = (page - 1) * limit;

  const allPatients = Array.from(this.patients.values());
  const total = allPatients.length;
  const totalPages = Math.ceil(total / limit);
  
  // Ordena por data de importação (mais recente primeiro)
  allPatients.sort((a, b) => {
    const dateA = a.importedAt ? new Date(a.importedAt).getTime() : 0;
    const dateB = b.importedAt ? new Date(b.importedAt).getTime() : 0;
    return dateB - dateA;
  });

  const data = allPatients.slice(offset, offset + limit);

  return {
    data,
    total,
    page,
    limit,
    totalPages
  };
}
```

VALIDAÇÃO APÓS APLICAR:
1. Servidor reinicia sem erros
2. GET /api/patients funciona normalmente (sem query params)
3. GET /api/patients?page=1&limit=10 retorna 10 pacientes
4. Headers de paginação são retornados
5. Frontend não quebrou

EXEMPLOS DE USO:

Sem paginação (retrocompatível):
```bash
curl http://localhost:5000/api/patients?paginate=false
# Retorna todos
```

Com paginação (padrão):
```bash
curl http://localhost:5000/api/patients
# Retorna primeira página (50 itens)

curl http://localhost:5000/api/patients?page=2&limit=20
# Retorna segunda página (20 itens)
```

Resposta com paginação:
```json
{
  "data": [...],
  "pagination": {
    "page": 1,
    "limit": 50,
    "total": 234,
    "totalPages": 5,
    "hasNext": true,
    "hasPrev": false
  }
}
```

Headers retornados:
X-Total-Count: 234
X-Total-Pages: 5
X-Current-Page: 1
X-Per-Page: 50

ATUALIZAR FRONTEND (OPCIONAL - NÃO OBRIGATÓRIO AGORA):

Se quiser usar paginação no frontend, modifique o hook:
```typescript
// Em client/src/hooks/usePatients.ts
export function usePatients(page = 1, limit = 50) {
  return useQuery({
    queryKey: ['patients', page, limit],
    queryFn: async () => {
      const res = await fetch(`/api/patients?page=${page}&limit=${limit}`);
      return res.json();
    }
  });
}
```

IMPORTANTE:
- Paginação é OPCIONAL (paginate=false para desabilitar)
- Retrocompatível com código existente
- Limite máximo de 100 por página (segurança)
- Headers informativos para cliente
- Ordenação por data (mais recentes primeiro)
- NÃO quebra funcionalidade existente

PERFORMANCE ESPERADA:
- Antes: 234 pacientes = 2-5 segundos
- Depois: 50 pacientes = 0.1-0.5 segundos (10x mais rápido!)

CHECKLIST DE SUCESSO:
☐ Rota GET /api/patients atualizada
☐ getPatientsPaginated implementado no postgres-storage
☐ getPatientsPaginated implementado no memory-storage
☐ Import de desc adicionado
☐ Servidor reinicia sem erros
☐ Rota sem params funciona (50 itens)
☐ Rota com page/limit funciona
☐ Rota com paginate=false funciona (todos)
☐ Headers de paginação presentes
☐ Frontend não quebrou